<!-- Generated by IcoMoon.io -->
<svg version="1.1" xmlns="http://www.w3.org/2000/svg" width="32" height="32" viewBox="0 0 32 32">
<title>close</title>
<path d="M31.999 0.997l-0.996-0.997-15.004 15.003-15.003-15.003-0.997 0.997 15.003 15.002-15.003 15.003 0.997 0.998 15.003-15.005 15.004 15.005 0.996-0.998-15.003-15.003z"></path>
</svg>
