<!-- Generated by IcoMoon.io -->
<svg version="1.1" xmlns="http://www.w3.org/2000/svg" width="32" height="32" viewBox="0 0 32 32">
<title>in_map</title>
<path d="M26.368 15.467v11.733h-3.2c-0.295 0-0.533 0.239-0.533 0.533v3.2h-19.733v-29.867h23.467v6.933h1.067v-7.467c0-0.295-0.239-0.533-0.533-0.533h-24.533c-0.295 0-0.533 0.239-0.533 0.533v30.933c0 0.295 0.239 0.533 0.533 0.533h20.8c0.141-0 0.277-0.056 0.377-0.156l3.733-3.733c0.045-0.045 0.081-0.098 0.107-0.156 0.007-0.017 0.012-0.033 0.018-0.050 0.015-0.045 0.025-0.091 0.028-0.139 0-0.011 0.006-0.021 0.006-0.033v-12.267h-1.069zM23.701 30.179v-1.913h1.913l-1.913 1.913z"></path>
<path d="M29.679 8.956c-0.658-0.629-1.696-0.629-2.354 0l-9.333 9.333c-0.1 0.1-0.156 0.236-0.156 0.377v1.6c0 0.295 0.239 0.533 0.533 0.533h1.6c0.141 0 0.277-0.056 0.377-0.156l9.333-9.333c0.649-0.651 0.649-1.704 0-2.354zM19.747 19.733h-0.846v-0.846l6.667-6.667 0.846 0.846-6.667 6.667zM27.168 12.313l-0.846-0.846 0.579-0.579 0.846 0.846-0.579 0.579zM28.924 10.556l-0.423 0.423-0.846-0.846 0.423-0.423c0.237-0.226 0.609-0.226 0.846 0 0.233 0.234 0.233 0.612 0 0.846z"></path>
<path d="M6.635 6.933c-1.178 0-2.133 0.955-2.133 2.133s0.955 2.133 2.133 2.133 2.133-0.955 2.133-2.133-0.955-2.133-2.133-2.133zM6.635 10.133c-0.589 0-1.067-0.478-1.067-1.067s0.478-1.067 1.067-1.067 1.067 0.478 1.067 1.067-0.478 1.067-1.067 1.067z"></path>
<path d="M16.612 2.51l-0.754-0.754-1.223 1.223-1.223-1.223-0.754 0.754 1.223 1.223-1.223 1.223 0.754 0.754 1.223-1.223 1.223 1.223 0.754-0.754-1.223-1.223z"></path>
<path d="M21.568 6.4c-1.178 0-2.133 0.955-2.133 2.133s0.955 2.133 2.133 2.133c1.178 0 2.133-0.955 2.133-2.133s-0.955-2.133-2.133-2.133zM21.568 9.6c-0.589 0-1.067-0.478-1.067-1.067s0.478-1.067 1.067-1.067 1.067 0.478 1.067 1.067-0.478 1.067-1.067 1.067z"></path>
<path d="M8.235 21.867c-1.178 0-2.133 0.955-2.133 2.133s0.955 2.133 2.133 2.133 2.133-0.955 2.133-2.133c0-1.178-0.955-2.133-2.133-2.133zM8.235 25.067c-0.589 0-1.067-0.478-1.067-1.067s0.478-1.067 1.067-1.067 1.067 0.478 1.067 1.067-0.478 1.067-1.067 1.067z"></path>
<path d="M10.745 14.777l-0.754-0.754-1.223 1.223-1.223-1.223-0.754 0.754 1.223 1.223-1.223 1.223 0.754 0.754 1.223-1.223 1.223 1.223 0.754-0.754-1.223-1.223z"></path>
<path d="M24.079 22.244l-0.754-0.754-1.223 1.223-1.223-1.223-0.754 0.754 1.223 1.223-1.223 1.223 0.754 0.754 1.223-1.223 1.223 1.223 0.754-0.754-1.223-1.223z"></path>
<path d="M11.566 10.667h0.907v-1.067h-2.133c-0.295 0-0.533 0.239-0.533 0.533v2.133h1.067v-0.747c2.314 2.983 2.147 7.197-0.395 9.988l0.79 0.718c2.956-3.245 3.083-8.167 0.298-11.559z"></path>
<path d="M14.635 24.533c-1.178 0-2.133 0.955-2.133 2.133s0.955 2.133 2.133 2.133c1.178 0 2.133-0.955 2.133-2.133s-0.955-2.133-2.133-2.133zM14.635 27.733c-0.589 0-1.067-0.478-1.067-1.067s0.478-1.067 1.067-1.067 1.067 0.478 1.067 1.067-0.478 1.067-1.067 1.067z"></path>
<path d="M18.212 7.623l-1.6-1.6-0.754 0.754 0.69 0.69h-6.713v1.067h6.713l-0.69 0.69 0.754 0.754 1.6-1.6c0.208-0.208 0.208-0.546 0-0.754z"></path>
<path d="M19.435 10.667h-2.133v1.067h0.864c-2.62 2.789-4.074 6.474-4.064 10.3v1.433h1.067v-1.433c-0.009-3.534 1.326-6.94 3.733-9.527v0.827h1.067v-2.133c0-0.295-0.239-0.533-0.533-0.533z"></path>
</svg>
